<svg version="1.1" class="icon--mail" xmlns="http://www.w3.org/2000/svg" xmlns:xlink="http://www.w3.org/1999/xlink"
	x="0px" y="0px" width="25px" height="25px" viewBox="0 0 25 25" enable-background="new 0 0 25 25"
	xml:space="preserve">
	<path fill="#D36783" d="M0.5,21.496h24V3.503h-24V21.496z M23.491,4.099L12.933,14.664c-0.114,0.113-0.256,0.172-0.426,0.172
	c-0.171,0-0.312-0.059-0.426-0.172L1.522,4.099H23.491z M23.904,4.525v15.952l-7.967-7.968L23.904,4.525z M23.479,20.902H1.522
	l7.98-7.965l2.141,2.131c0.243,0.24,0.53,0.363,0.863,0.363s0.616-0.123,0.852-0.363l2.152-2.131L23.479,20.902z M1.096,20.477
	V4.525l7.979,7.984L1.096,20.477z" />
</svg>